 {
     "1":{
		"layout-state":{
			"gchar":"lower"
		}
	},
	"2":{
		"layout":{
			"gchar":"mh_button_speller_style.json"
		}
	},
    "3":{
		"entry":{
			"gint":1
		}
	},
    "4":{
		"y-offset":{
			"gfloat":62.0
		}
	},
	"5":{
		"shown":{
			"gboolean":false
		}
	},
	"6":{
		"hidden":{
			"gboolean":true
		}
	},
    "7":{
		"history-support":{
			"gboolean":true
		}
	},
	"8":{
		"text-selection":{
			"gboolean":true
		}
	}
}


